{
  "project_info": {
    "project_number": "340543737693",
    "firebase_url": "https://mostrans-dev.firebaseio.com",
    "project_id": "mostrans-dev",
    "storage_bucket": "mostrans-dev.appspot.com"
  },
  "client": [
    {
      "client_info": {
        "mobilesdk_app_id": "1:340543737693:android:094e0105f85fa8a745a2b4",
        "android_client_info": {
          "package_name": "com.mostrans.transporter"
        }
      },
      "oauth_client": [
        {
          "client_id": "340543737693-455ml3ji6tvn8s8fq8lf2l8i534mj60n.apps.googleusercontent.com",
          "client_type": 3
        }
      ],
      "api_key": [
        {
          "current_key": "AIzaSyBUWiVvaADMsNRAoM_v5ZXf0cNrOLchsX4"
        }
      ],
      "services": {
        "appinvite_service": {
          "other_platform_oauth_client": [
            {
              "client_id": "340543737693-455ml3ji6tvn8s8fq8lf2l8i534mj60n.apps.googleusercontent.com",
              "client_type": 3
            }
          ]
        }
      }
    },
    {
      "client_info": {
        "mobilesdk_app_id": "1:340543737693:android:93aeff27c54f50e245a2b4",
        "android_client_info": {
          "package_name": "com.mostrans_transporter"
        }
      },
      "oauth_client": [
        {
          "client_id": "340543737693-455ml3ji6tvn8s8fq8lf2l8i534mj60n.apps.googleusercontent.com",
          "client_type": 3
        }
      ],
      "api_key": [
        {
          "current_key": "AIzaSyBUWiVvaADMsNRAoM_v5ZXf0cNrOLchsX4"
        }
      ],
      "services": {
        "appinvite_service": {
          "other_platform_oauth_client": [
            {
              "client_id": "340543737693-455ml3ji6tvn8s8fq8lf2l8i534mj60n.apps.googleusercontent.com",
              "client_type": 3
            }
          ]
        }
      }
    }
  ],
  "configuration_version": "1"
}